{
  "type": "service_account",
  "project_id": "facilitimo",
  "private_key_id": "04eeb172c40d2cefbc91c1ff8df8af7ee564bc94",
  "private_key": "-----BEGIN PRIVATE KEY-----\nMIIEvQIBADANBgkqhkiG9w0BAQEFAASCBKcwggSjAgEAAoIBAQC5FOeMzVxiEZ3/\nHTnrBvkzBh/ShLfESTeFEIj86PVcieyVBaU9lROF+Nd5eYyjaoKTMDLoe16f5PmE\nBJdleHL6DLiJF0wCo//g5rVoMVNDIQm1TwtIzEkrI/MjbOANB9FG/H/8gmnyEPbP\nkyny+p2yzaPs3YYmcbHRPt6X/MC6XjYbzG0FVg82+i1vES/WJ2NO4gjeLBniAHme\n6efRJrWx2bsQ1ls+QDWL1O1LD0IW/XZ+ypbHDOia4tghdb3Lbx3yQrRDq0J8HKuV\nZu+MjiiZvyIEF5+v3M3T8ufBZOFQRtt9Fxu7gADwVBcbezc+wSK2UCjkMlYr40Ac\nAgL0+DsHAgMBAAECggEADcaejX5jl/ETv39fZjz4o3GbQMIcI4IHneHjMF/uk1q4\nv0bSS8ki0N/6udHwQ+GTonz97QvxuRkD8W2eDzFt7Wqw+ZNAVxn527WQXxb8yYxV\n+qbNgjeiYpGkcUiTTKT+ULhOlm7mj9vvYvfjMXCx+DMSNnkumQHxaE+zpcBsX/Ku\naN/6+Nlp/c0JhjF0TfESow0snAx0Ctb8F9qr9ajNNZP22BjoNhyuKRIpfU5oaMNI\n2JXZblTPQqlHXO6MPirr+Sf/EHd7MgfTGKivw+vOXMCXRPlW4/nuBOzHVsYiDgMH\nuvPLtT0QufuWaHA2KNhYADWR3IiFfN1pnWBQS56isQKBgQD/AN1Yjsudgk9rCgbJ\ne3K5UnQ6BCJ5+9vM26QPsG23H9sbHAzFM/myQ71yyd1cOtTUwUuRK87XSV+lyPfk\nuNDdHjQ8vc1EVLMBsA/V7nhtCHGxsTjEaNxSLIZW5y1gO5qRL6Gmuyu07brti3ok\nAqyFuJC7tecuwQP0C/esO9mQRQKBgQC5zhT6mV4bQk96iWknTe7jFA4Z8Ixmu3mk\n856mrH2lVV7aGfTrNwwJA9mgh0m9LbrCEzZ+MnqL8NCoGdWjgUp8puzDR8557bxQ\nVrWl0EddSIOz1iUVJZTLEI2dXcK+ebGNRMWc1Qt0rhaR/1XaL3VyqbJNeikKYB51\nYDwAqJeQ2wKBgQDJL+tyxSaMXJVABCcaq5T19cHRTBXPXBAsblXgMvg89Jsvpk/E\n/p7QMHW1rOJCs//a4641GPUWEcOuzwIVqGLRMdVQ3wamFJUujbPQu1az32ekJAh/\nnaPGCW7r/XRlamEmjwfgvedb1fwXEmYJJzrqPZWjI38D+jCeSRrc/lNGaQKBgBVH\nxxtUiXSxyYyNRF/eCygy2dKavFnfyvTbeiY4x0MyXeS46FYwPc6ihEBgfk+Odz9X\nF/yoJ2TztdIq808AtdlE/QT4qmtIkTLaW3+cNTA35+2m7yRW443GXZHSdUV/hphZ\nchCeTeuVLLyX8+tDWD5DtUouXZj0nUhwNy8UIBfVAoGAe+LQkND3TmDvmCHF2Nkw\nW5Kloj5R+XS1SRcEsOwVw+Mn/WQLJj9bcNgpqTgpIx/UXcGf6Fzn3Lj+ILP+Yp/j\nQS7iyDheLowxebdjBjIOGjgE6cpVr1/XpQicBx+kwJU/LzeCtybshrBEB0j7RIKY\nfpZ0RHeBB+poDjuKuvITVkQ=\n-----END PRIVATE KEY-----\n",
  "client_email": "facilitimo@facilitimo.iam.gserviceaccount.com",
  "client_id": "112556907095946162829",
  "auth_uri": "https://accounts.google.com/o/oauth2/auth",
  "token_uri": "https://oauth2.googleapis.com/token",
  "auth_provider_x509_cert_url": "https://www.googleapis.com/oauth2/v1/certs",
  "client_x509_cert_url": "https://www.googleapis.com/robot/v1/metadata/x509/facilitimo%40facilitimo.iam.gserviceaccount.com"
}
